<?xml version="1.0" standalone="no"?>
<!DOCTYPE svg PUBLIC "-//W3C//DTD SVG 1.1//EN" "http://www.w3.org/Graphics/SVG/1.1/DTD/svg11.dtd">
<svg xmlns="http://www.w3.org/2000/svg">
<metadata>Generated by Fontastic.me</metadata>
<defs>
<font id="pluckt-icons" horiz-adv-x="512">
<font-face font-family="pluckt-icons" units-per-em="512" ascent="480" descent="-32"/>
<missing-glyph horiz-adv-x="512" />

<glyph glyph-name="globe" unicode="&#57345;" d="M256 0c-141 0-256 115-256 256 0 141 115 256 256 256 141 0 256-115 256-256 0-141-115-256-256-256z m0 448c-106 0-192-86-192-192 0-106 86-192 192-192 106 0 192 86 192 192 0 106-86 192-192 192z m94-307l-6-4-16-10-9-7c-8-3-15-6-23-8l0 10-2 21c0 0-2 13-4 16-2 3-7 8-11 10-5 2-8 2-11 5-3 4-5 9-8 15-4 5-8 10-8 13 0 3 0 30 0 30l4 25 7 5 9 10 6 2 21-4 15 0 6-13 14-11 9-14 12-4 13 0 8-10 6-11 2-8 0-14-2-7c-8-14-19-27-32-37z m-52 227l-15-8-6-15-8-8-30 0-13-5-1-11-5-8-2-10 3-8 4-7c0 0 8-10 0-16 0 0-11 0-13 3-2 3-17 13-19 15-3 3-12 5-12 5l-11 4-10 1 1 14-1 12-4 8-11 9-1 9 1 5c28 27 66 43 107 43 24 0 46-5 66-15l-1-3z"/>
<glyph glyph-name="rect-play" unicode="&#57346;" d="M496 64l-471 0c-14 0-25 11-25 25l0 337c0 14 11 25 25 25l471 0c14 0 25-11 25-25l0-337c0-14-11-25-25-25z m-8 353l-454 0 0-286 454 0z m-251-63c4 0 7-2 10-4l94-58c5-3 9-9 9-16 0-6-4-12-9-15l-94-59 0 0c-1 0-2-1-2-1 0 0 0 0-1 0 0 0-1-1-2-1 0 0 0 0 0 0 0 0-1 0-1 0 0 0 0 0 0 0 0 0-1 0-1 0 0 0 0 0 0 0-1 0-1 0-1-1 0 0-1 0-1 0 0 0 0 0-1 0-10 0-18 8-18 18l0 119c0 10 8 18 18 18z"/>
<glyph glyph-name="share" unicode="&#57347;" d="M495 308l-126-90c-6-4-14-7-21-7l0 0-22 0 0 67c-156 0-179-111-179-111 0 217 179 200 179 200l0 67 22 0 0 0c7 0 15-2 21-6l126-90c11-9 11-22 0-30z m-188 133c-20 7-42 11-65 11-109 0-197-87-197-196 0-108 88-196 197-196 97 0 177 70 193 162l49 34c0-134-109-242-242-242-134 0-242 108-242 242 0 134 108 242 242 242 39 0 76-10 109-26 0 0-52 15-44-31z"/>
<glyph glyph-name="comment" unicode="&#57348;" d="M264 23c-39 0-75 10-107 26-49-37-157-26-157-26 65 0 77 56 77 91-31 40-50 91-50 146 0 131 106 237 237 237 131 0 237-106 237-237 0-130-106-237-237-237z m-95 266c-22 0-40-18-40-40 0-22 18-40 40-40 22 0 40 18 40 40 0 22-18 40-40 40z m99 0c-22 0-40-18-40-40 0-22 18-40 40-40 22 0 40 18 40 40 0 22-18 40-40 40z m98 0c-22 0-40-18-40-40 0-22 18-40 40-40 22 0 40 18 40 40 0 22-18 40-40 40z"/>
<glyph glyph-name="facebook" unicode="&#57349;" d="M292 353l74 0-9-81-65 0 0-235-97 0 0 235-49 0 0 81 49 0 0 49c0 35 8 61 24 79 17 18 44 26 81 26l65 0 0-81-40 0c-8 0-14 0-18-2-5-1-8-3-10-6-2-4-3-7-4-10 0-3-1-8-1-14z"/>
<glyph glyph-name="twitter" unicode="&#57350;" d="M481 395c-13-18-28-34-46-47 0-3 0-7 0-12 0-25-3-50-11-74-7-25-18-49-33-71-14-23-32-43-52-61-21-17-45-31-74-41-29-11-60-16-92-16-52 0-99 14-142 42 7-1 14-2 22-2 43 0 81 14 115 40-20 0-38 6-54 18-16 12-27 27-33 46 7-1 13-2 18-2 8 0 16 1 24 4-21 4-39 15-53 31-14 17-21 37-21 59l0 1c13-7 27-11 42-11-13 8-23 19-30 32-8 14-11 29-11 44 0 17 4 33 12 47 23-28 51-51 84-68 33-17 69-27 107-29-2 8-3 15-3 22 0 25 9 47 27 65 18 18 40 27 66 27 26 0 49-10 67-29 21 4 40 11 59 22-7-22-21-39-41-51 18 2 35 7 53 14z"/>
<glyph glyph-name="tumblr" unicode="&#57351;" d="M221 475l63 0 0-110 104 0 0-69-104 0 0-113c0-26 1-42 4-49 2-7 7-13 15-17 9-6 20-9 33-9 22 0 44 7 66 22l0-69c-19-10-36-16-51-19-14-4-31-5-49-5-20 0-38 2-53 7-15 5-28 12-40 22-11 9-18 19-22 30-4 10-6 25-6 46l0 154-49 0 0 62c17 5 32 13 44 24 12 10 22 23 30 37 7 15 12 34 15 56z"/>
<glyph glyph-name="mail" unicode="&#57352;" d="M344 275l154 149c4-4 7-10 7-17l0-300c0-6-3-12-7-16z m-336 149c4 4 10 7 16 7l457 0c6 0 12-3 16-7l-245-191z m-2-333c-4 4-6 10-6 16l0 300c0 7 3 13 7 17l154-149z m246 95l65 62 180-158c-4-4-10-6-16-6l-457 0c-7 0-12 2-17 6l181 158z"/>
<glyph glyph-name="grid" unicode="&#57353;" d="M473 13l-172 0c-14 0-26 12-26 26l0 172c0 14 12 26 26 26l172 0c14 0 26-12 26-26l0-172c0-14-12-26-26-26z m0 276l-172 0c-14 0-26 11-26 25l0 172c0 14 12 26 26 26l172 0c14 0 26-12 26-26l0-172c0-14-12-25-26-25z m-275-276l-172 0c-14 0-26 12-26 26l0 172c0 14 12 26 26 26l172 0c14 0 25-12 25-26l0-172c0-14-11-26-25-26z m0 276l-172 0c-14 0-26 11-26 25l0 172c0 14 12 26 26 26l172 0c14 0 25-12 25-26l0-172c0-14-11-25-25-25z"/>
<glyph glyph-name="inbox-out" unicode="&#57360;" d="M486 36l-462 0c-13 0-24 11-24 24l0 151c0 3 1 6 2 9l63 166c4 9 12 16 23 16l64 0c0-3-1-5-1-8 0-17 9-31 22-40l-69 0-45-119 77 0c13 0 23-11 23-24l0-24 191 0 0 24c0 13 11 24 24 24l77 0-46 119-68 0c13 9 21 23 21 40 0 3 0 5-1 8l65 0c10 0 19-7 22-16l64-166c1-3 1-6 1-9l0-151c0-13-10-24-23-24z m-175 334c-7 0-13 3-17 7l-15 15 0-149c0-13-11-24-24-24-13 0-24 11-24 24l0 149-15-15c-4-4-10-7-17-7-13 0-24 11-24 24 0 7 3 13 7 17l56 56c4 4 10 7 17 7 6 0 12-3 17-7l55-56c5-4 7-10 7-17 0-13-10-24-23-24z"/>
<glyph glyph-name="circle-play" unicode="&#57361;" d="M359 235l-142-89-1 0c-1-1-2-2-3-2 0 0 0 0 0 0-1-1-2-1-3-1 0 0 0 0 0 0-1-1-1-1-2-1 0 0 0 0 0 0-1 0-1 0-2 0 0 0 0 0 0 0-1 0-1 0-2 0 0 0 0 0 0 0-1 0-1 0-2 0-15 0-27 12-27 26l0 180c0 15 12 27 27 27 6 0 11-2 15-5l142-88c8-5 14-14 14-24 0-10-6-18-14-23z m-104-233c-141 0-255 114-255 255 0 141 114 255 255 255 141 0 255-114 255-255 0-141-114-255-255-255z m0 484c-126 0-229-103-229-229 0-126 103-229 229-229 126 0 229 103 229 229 0 126-103 229-229 229z"/>
<glyph glyph-name="search" unicode="&#57362;" d="M497 15c-19-19-49-19-68 0l-85 85c-34-23-76-36-120-36-124 0-224 100-224 224 0 124 100 224 224 224 124 0 224-100 224-224 0-44-13-86-36-120l85-85c19-19 19-49 0-68z m-273 433c-88 0-160-72-160-160 0-88 72-160 160-160 88 0 160 72 160 160 0 88-72 160-160 160z"/>
<glyph glyph-name="calendar" unicode="&#57363;" d="M480 0l-448 0c-18 0-32 14-32 32l0 448c0 18 14 32 32 32l32 0 0-96 128 0 0 96 128 0 0-96 128 0 0 96 32 0c18 0 32-14 32-32l0-448c0-18-14-32-32-32z m-32 352l-384 0 0-288 384 0z m-256-128l-64 0 0 64 64 0z m0-96l-64 0 0 64 64 0z m96 96l-64 0 0 64 64 0z m0-96l-64 0 0 64 64 0z m96 96l-64 0 0 64 64 0z m0-96l-64 0 0 64 64 0z m-32 384l64 0 0-64-64 0z m-256 0l64 0 0-64-64 0z"/>
<glyph glyph-name="star" unicode="&#57364;" d="M257 495l85-153 172-33-120-128 22-174-159 74-159-74 22 174-120 128 172 33 85 153"/>
<glyph glyph-name="arrow-right" unicode="&#62;" d="M129 449l189-190-191-192c-7-6-11-15-11-25 0-20 17-36 37-36 9 0 18 4 25 10l217 217c6 7 11 16 11 26 0 0 0 0 0 0 0 0 0 0 0 0 0 10-5 20-11 26l-217 217 0 0c-7 6-16 10-25 10-20 0-37-16-37-36 0-11 5-21 13-27z"/>
<glyph glyph-name="arrow-left" unicode="&#60;" d="M393 449l-189-190 192-192c6-6 10-15 10-25 0-20-16-36-36-36-10 0-19 4-25 10l-217 217c-7 7-11 16-11 26 0 0 0 0 0 0 0 0 0 0 0 0 0 10 4 20 11 26l217 217 0 0c6 6 15 10 25 10 20 0 36-16 36-36 0-11-5-21-13-27z"/>
<glyph glyph-name="book" unicode="&#57365;" d="M502 94l-234-97c-3-1-6-2-9-2-4 0-7 1-10 2l-234 97c-9 4-15 12-15 22l0 372c0 13 11 24 24 24 4 0 7 0 9-2l1 0c0 0 0 0 0 0l225-93 224 93c0 0 0 0 0 0l1 0c2 2 6 2 9 2 13 0 24-11 24-24l0-372c0-10-6-18-15-22z m-268 281l-186 77 0-319 186-77z m235 77l-186-77 0-319 186 77z m-148-112l89 41c3 1 6 2 10 2 13 0 24-11 24-24 0-10-6-19-14-22l-89-41c-3-1-6-2-10-2-13 0-24 11-24 24 0 10 6 19 14 22z m0-88l89 40c3 1 6 2 10 2 13 0 24-11 24-24 0-10-6-18-14-22l-89-41c-3-1-6-2-10-2-13 0-24 11-24 24 0 10 6 19 14 23z m0-89l89 40c3 1 6 2 10 2 13 0 24-11 24-24 0-10-6-18-14-22l-89-40c-3-2-6-3-10-3-13 0-24 11-24 25 0 9 6 18 14 22z m-224 220c4 0 7-1 10-2l89-41c8-3 14-12 14-22 0-13-11-24-24-24-4 0-7 1-10 2l-89 41c-8 3-14 12-14 22 0 13 11 24 24 24z m0-89c4 0 7-1 10-2l89-40c8-4 14-13 14-23 0-13-11-24-24-24-4 0-7 1-10 2l-89 41c-8 4-14 12-14 22 0 13 11 24 24 24z m0-89c4 0 7-1 10-2l89-40c8-4 14-13 14-22 0-14-11-25-24-25-4 0-7 1-10 3l-89 40c-8 4-14 12-14 22 0 13 11 24 24 24z"/>
<glyph glyph-name="more" unicode="&#57366;" d="M257-3c-142 0-257 116-257 258 0 142 115 257 257 257 143 0 258-115 258-257 0-142-115-258-258-258z m0 467c-115 0-209-94-209-209 0-116 94-209 209-209 116 0 209 93 209 209 0 115-93 209-209 209z m72-189l46 0 0-46-46 0z m-93 0l46 0 0-46-46 0z m-93-46l0 46 46 0 0-46z"/>
<glyph glyph-name="arrow-down" unicode="&#57367;" d="M442 382l-190-189-191 192 0 0c-7 6-16 10-26 10-20 0-36-16-36-36 0-10 4-19 10-25l217-217 0 0c7-7 16-11 26-11 0 0 0 0 0 0 1 0 1 0 1 0 10 0 19 4 26 11l0 0 217 217-1 0c7 6 11 15 11 25 0 20-17 36-37 36-11 0-20-5-27-13z"/>
<glyph glyph-name="play" unicode="&#57368;" d="M440 214l-305-191 0 0c-2-1-4-3-7-4 0 0 0 0 0 0-2-1-5-2-7-2 0 0 0 0-1-1-1 0-2 0-3 0 0 0 0 0 0 0-2-1-3-1-4-1 0 0 0 0-1 0-1 0-2 0-3 0 0-1 0-1-1-1-1 0-2 0-4 0-31 0-57 26-57 58l0 383c0 32 26 58 57 58 13 0 24-4 33-10l303-190c17-10 29-28 29-50 0-21-12-39-29-49z"/>
<glyph glyph-name="plus" unicode="&#43;" d="M457 302l0-55c0-8-3-14-8-20-5-5-12-8-19-8l-119 0 0-118c0-8-3-15-8-20-5-5-12-8-20-8l-54 0c-8 0-15 3-20 8-5 5-8 12-8 20l0 118-119 0c-7 0-14 3-19 8-5 6-8 12-8 20l0 55c0 7 3 14 8 19 5 5 12 8 19 8l119 0 0 119c0 8 3 14 8 19 5 6 12 8 20 8l54 0c8 0 15-2 20-8 5-5 8-11 8-19l0-119 119 0c7 0 14-3 19-8 5-5 8-12 8-19z"/>
<glyph glyph-name="question" unicode="&#63;" d="M293 119l0 55c0 2-1 5-3 6-2 2-4 3-7 3l-54 0c-3 0-5-1-7-3-2-1-3-4-3-6l0-55c0-3 1-5 3-7 2-1 4-2 7-2l54 0c3 0 5 1 7 2 2 2 3 4 3 7z m73 192c0 17-6 32-16 46-11 15-24 26-40 34-16 7-32 11-48 11-47 0-82-20-106-61-3-4-2-8 2-12l38-28c1-1 3-2 5-2 3 0 6 1 7 4 10 13 19 21 25 26 6 4 15 7 24 7 10 0 18-3 25-8 7-5 11-10 11-17 0-7-2-13-6-17-4-4-10-9-20-13-12-5-23-13-33-25-10-11-15-23-15-35l0-11c0-2 1-5 3-6 2-2 4-3 7-3l54 0c3 0 5 1 7 3 2 1 3 4 3 6 0 4 2 9 6 14 4 6 9 11 15 15 6 3 11 6 14 8 4 2 8 5 13 10 6 4 10 9 13 13 3 5 6 11 8 18 3 7 4 14 4 23z m109-55c0-40-9-77-29-110-20-34-46-60-80-80-33-20-70-29-110-29-40 0-77 9-110 29-34 20-60 46-80 80-20 33-29 70-29 110 0 40 9 77 29 110 20 34 46 60 80 80 33 20 70 29 110 29 40 0 77-9 110-29 34-20 60-46 80-80 20-33 29-70 29-110z"/>
<glyph glyph-name="spinner" unicode="&#57369;" d="M174 128c0-11-4-21-12-29-9-8-18-12-29-12-12 0-22 4-30 12-8 8-12 18-12 29 0 11 4 21 12 29 8 8 18 12 30 12 11 0 20-4 29-12 8-8 12-18 12-29z m123-55c0-10-3-19-11-26-7-7-15-10-25-10-11 0-19 3-26 10-7 7-11 16-11 26 0 10 4 19 11 26 7 7 15 11 26 11 10 0 18-4 25-11 8-7 11-16 11-26z m-174 183c0-13-4-23-13-32-9-9-20-14-32-14-13 0-24 5-33 14-9 9-13 19-13 32 0 13 4 23 13 32 9 9 20 14 33 14 12 0 23-5 32-14 9-9 13-19 13-32z m298-128c0-9-4-16-10-23-6-6-14-9-22-9-9 0-17 3-23 9-6 7-9 14-9 23 0 9 3 16 9 23 6 6 14 9 23 9 8 0 16-3 22-9 6-7 10-14 10-23z m-238 256c0-14-5-26-15-36-10-9-22-14-35-14-14 0-26 5-36 14-10 10-15 22-15 36 0 14 5 26 15 36 10 9 22 14 36 14 13 0 25-5 35-14 10-10 15-22 15-36z m132 55c0-15-5-28-16-39-10-11-23-16-38-16-16 0-29 5-39 16-11 11-16 24-16 39 0 15 5 28 16 39 10 10 23 16 39 16 15 0 28-6 38-16 11-11 16-24 16-39z m156-183c0-8-3-14-8-19-5-6-12-8-20-8-7 0-14 2-19 8-5 5-8 11-8 19 0 8 3 14 8 19 5 6 12 8 19 8 8 0 15-2 20-8 5-5 8-11 8-19z m-60 128c0-6-2-12-6-16-5-5-10-7-16-7-7 0-12 2-17 7-4 4-6 10-6 16 0 6 2 12 6 16 5 5 10 7 17 7 6 0 11-2 16-7 4-4 6-10 6-16z"/>
<glyph glyph-name="cogs" unicode="&#57376;" d="M239 256c0 19-7 35-20 48-13 14-29 20-48 20-19 0-35-6-49-20-13-13-20-29-20-48 0-19 7-35 20-48 14-14 30-20 49-20 19 0 35 6 48 20 13 13 20 29 20 48z m205-137c0 10-4 18-10 24-7 7-15 11-24 11-10 0-18-4-24-11-7-6-11-14-11-24 0-9 4-17 10-24 7-6 15-10 25-10 9 0 17 4 24 10 6 7 10 15 10 24z m0 274c0 9-4 17-10 24-7 6-15 10-24 10-10 0-18-4-24-10-7-7-11-15-11-24 0-10 4-18 10-25 7-6 15-10 25-10 9 0 17 4 24 10 6 7 10 15 10 25z m-103-113l0-49c0-2 0-4-2-5-1-2-2-3-4-3l-41-6c-2-7-5-13-9-21 6-8 14-18 24-30 2-2 2-4 2-6 0-2 0-4-2-5-4-5-11-13-22-24-10-10-17-16-21-16-2 0-3 1-5 2l-31 24c-6-3-13-6-20-8-2-19-4-33-7-41-1-5-3-7-8-7l-49 0c-2 0-4 1-5 2-2 2-3 3-3 5l-6 41c-6 2-13 4-20 8l-32-24c-1-1-3-2-5-2-2 0-4 1-6 3-25 23-38 37-38 42 0 2 1 4 2 5 2 3 5 8 11 14 5 7 9 13 12 17-4 8-7 15-9 22l-41 6c-1 0-3 1-4 3-1 1-2 3-2 5l0 49c0 2 1 4 2 5 1 2 3 3 4 3l41 6c2 7 5 13 9 21-6 8-14 18-24 30-1 2-2 4-2 6 0 2 1 4 2 5 4 5 11 13 22 24 11 10 18 16 21 16 2 0 4-1 6-2l30-24c6 3 13 6 21 8 2 19 4 33 6 41 1 5 4 7 8 7l49 0c2 0 4-1 6-2 1-2 2-3 2-5l7-41c6-2 12-4 20-8l31 24c1 1 3 2 5 2 2 0 4-1 6-3 26-23 38-37 38-42 0-2 0-4-1-5-3-3-6-8-12-15-5-6-9-12-12-16 4-8 7-16 9-22l41-6c2 0 3-1 4-3 2-1 2-3 2-5z m171-142l0-37c0-3-13-6-40-8-2-5-5-10-8-14 9-20 14-33 14-37 0-1 0-1-1-2-22-13-33-19-33-19-2 0-6 4-13 13-6 8-11 14-13 18-4-1-7-1-8-1-2 0-5 0-8 1-3-4-8-10-14-18-7-9-11-13-13-13 0 0-11 6-33 19 0 1-1 1-1 2 0 4 5 17 14 37-3 4-6 9-8 14-27 2-40 5-40 8l0 37c0 3 13 6 40 8 2 6 5 10 8 14-9 20-14 33-14 37 0 1 1 1 1 2 1 0 4 2 10 5 5 3 10 6 15 9 5 3 8 5 8 5 2 0 6-5 13-13 6-8 11-14 14-18 3 1 6 1 8 1 1 0 4 0 8-1 9 13 17 23 24 30l2 1c0 0 11-7 33-19 1-1 1-1 1-2 0-4-5-17-14-37 3-4 6-8 8-14 27-2 40-5 40-8z m0 273l0-37c0-3-13-6-40-8-2-5-5-10-8-14 9-20 14-33 14-37 0-1 0-1-1-2-22-13-33-19-33-19-2 0-6 4-13 13-6 8-11 14-13 18-4-1-7-1-8-1-2 0-5 0-8 1-3-4-8-10-14-18-7-9-11-13-13-13 0 0-11 6-33 19 0 1-1 1-1 2 0 4 5 17 14 37-3 4-6 9-8 14-27 2-40 5-40 8l0 37c0 3 13 6 40 8 2 6 5 10 8 14-9 20-14 33-14 37 0 1 1 1 1 2 1 0 4 2 10 5 5 4 10 7 15 9 5 3 8 5 8 5 2 0 6-4 13-13 6-8 11-14 14-18 3 1 6 1 8 1 1 0 4 0 8-1 9 13 17 23 24 30l2 1c0 0 11-7 33-19 1-1 1-1 1-2 0-4-5-17-14-37 3-4 6-8 8-14 27-2 40-5 40-8z"/>
<glyph glyph-name="google" unicode="&#57377;" d="M407 486l-125 0c-32 0-73-4-108-33-26-22-39-53-39-81 0-47 37-95 101-95 6 0 12 1 19 1-3-7-6-13-6-23 0-19 10-30 18-41-27-2-78-5-115-28-36-21-47-52-47-74 0-45 42-86 130-86 104 0 159 57 159 114 0 42-24 62-50 85l-22 17c-7 5-16 12-16 26 0 13 9 21 17 29 25 20 51 41 51 86 0 46-29 70-43 82l37 0z m-53-370c0-37-31-65-89-65-65 0-107 31-107 74 0 43 39 57 52 62 26 9 58 10 64 10 6 0 9 0 14-1 46-32 66-49 66-80z m-49 195c-9-10-26-17-41-17-52 0-75 67-75 108 0 15 3 32 13 45 10 12 26 19 42 19 50 0 77-67 77-111 0-11-2-30-16-44z"/>
<glyph glyph-name="logo" unicode="&#57378;" d="M257 1c-165-2-257 145-257 256 0 89 71 253 257 254 23 0 45-2 64-6l-18-19c-15 3-30 4-46 4-156 1-235-137-234-233 0-106 79-234 234-234 151 1 231 127 232 235 1 75-45 168-133 210 0 5-1 19-8 29 141-47 164-202 164-240 0-121-98-256-255-256z m201 255c0-112-90-202-202-202-111 0-202 90-202 202 0 111 91 202 202 202 5 0 10-1 15-1l-62-57c0 0 40-8 70-2 30 6 50 26 55 31 2 3 5 6 8 9 69-32 116-102 116-182z m-117 62c-1 18-4 27-12 39-8 12-27 27-51 25-30-1-91-1-91-1l-4-287 53 0 0 83c0 0 34-1 54 0 20 1 31 10 35 14 5 3 11 17 12 28 1 11 4 81 4 99z m-67-98c-7-1-41-1-41-1l0 123c0 0 21 0 41 0 21-1 24-30 24-30 0 0 2-45-2-66-3-21-16-24-22-26z m-22 198l75 76c0 0 25-19 0-52-25-33-75-24-75-24z"/>
<glyph glyph-name="pencil" unicode="&#57379;" d="M140 73l26 26-67 67-26-26 0-30 37 0 0-37z m150 265c0 4-2 7-7 7-1 0-3-1-4-2l-155-155c-2-2-2-3-2-5 0-4 2-6 6-6 2 0 4 0 5 2l155 154c1 2 2 3 2 5z m-16 55l119-119-238-237-118 0 0 118z m195-27c0-10-3-19-10-26l-48-47-118 118 47 48c7 7 15 10 26 10 10 0 18-3 26-10l67-67c7-8 10-16 10-26z"/>
<glyph glyph-name="camera" unicode="&#57380;" d="M256 316c21 0 39-8 54-23 15-15 23-33 23-54 0-21-8-39-23-54-15-15-33-23-54-23-21 0-39 8-54 23-15 15-23 33-23 54 0 21 8 39 23 54 15 15 33 23 54 23z m188 111c19 0 35-7 48-20 13-14 20-30 20-49l0-239c0-18-7-34-20-48-13-13-29-20-48-20l-376 0c-19 0-35 7-48 20-13 14-20 30-20 48l0 239c0 19 7 35 20 49 13 13 29 20 48 20l60 0 14 36c3 9 9 16 18 22 9 7 18 10 28 10l136 0c10 0 19-3 28-10 9-6 15-13 18-22l14-36z m-188-308c33 0 61 12 84 36 24 23 35 51 35 84 0 33-11 61-35 84-23 24-51 35-84 35-33 0-61-11-84-35-24-23-35-51-35-84 0-33 11-61 35-84 23-24 51-36 84-36z"/>
<glyph glyph-name="check" unicode="&#57381;" d="M477 350c0-7-2-14-8-19l-206-207-39-39c-6-5-12-8-20-8-7 0-14 3-19 8l-142 142c-6 6-8 12-8 20 0 7 2 14 8 19l38 39c6 5 12 8 20 8 7 0 14-3 19-8l84-84 188 188c5 5 12 8 19 8 8 0 14-3 20-8l38-39c6-6 8-12 8-20z"/>
<glyph glyph-name="remove" unicode="&#57382;" d="M426 134c0-7-3-14-8-19l-39-39c-5-5-12-8-20-8-7 0-14 3-19 8l-84 84-84-84c-5-5-12-8-19-8-8 0-15 3-20 8l-39 39c-5 5-8 12-8 19 0 8 3 14 8 20l84 84-84 84c-5 5-8 12-8 19 0 8 3 14 8 20l39 38c5 6 12 8 20 8 7 0 14-2 19-8l84-84 84 84c5 6 12 8 19 8 8 0 15-2 20-8l39-38c5-6 8-12 8-20 0-7-3-14-8-19l-84-84 84-84c5-6 8-12 8-20z"/>
<glyph glyph-name="reply-to" unicode="&#57383;" d="M302 206c-72 0-128-8-170-23-42-16-77-49-106-101 1 7 3 16 6 27 3 11 12 31 26 60 14 29 30 54 49 76 19 22 45 42 80 60 34 18 73 27 115 27 0 0 0 98 0 98 0 0 184-165 184-165 0 0-184-171-184-171 0 0 0 112 0 112"/>
<glyph glyph-name="grid-view" unicode="&#57384;" d="M257-3c-142 0-257 116-257 258 0 142 115 257 257 257 143 0 258-115 258-257 0-142-115-258-258-258z m0 467c-115 0-209-94-209-209 0-116 94-209 209-209 116 0 210 93 210 209 0 115-94 209-210 209z m90-313l-72 0c-6 0-11 5-11 10l0 72c0 6 5 10 11 10l72 0c5 0 10-4 10-10l0-72c0-5-5-10-10-10z m0 114l-72 0c-6 0-11 5-11 11l0 71c0 6 5 11 11 11l72 0c5 0 10-5 10-11l0-71c0-6-5-11-10-11z m-115-114l-71 0c-6 0-11 5-11 10l0 72c0 6 5 10 11 10l71 0c6 0 11-4 11-10l0-72c0-5-5-10-11-10z m0 114l-71 0c-6 0-11 5-11 11l0 71c0 6 5 11 11 11l71 0c6 0 11-5 11-11l0-71c0-6-5-11-11-11z"/>
<glyph glyph-name="list-view" unicode="&#57385;" d="M257-3c-142 0-257 116-257 258 0 142 115 257 257 257 143 0 258-115 258-257 0-142-115-258-258-258z m0 467c-115 0-209-94-209-209 0-116 94-209 209-209 116 0 210 93 210 209 0 115-94 209-210 209z m101-319l-198 0c-7 0-13 6-13 14l0 23c0 8 6 14 13 14l198 0c7 0 13-6 13-14l0-23c0-8-6-14-13-14z m0 88l-198 0c-7 0-13 6-13 13l0 24c0 7 6 14 13 14l198 0c7 0 13-7 13-14l0-24c0-7-6-13-13-13z m0 81l-198 0c-7 0-13 6-13 13l0 24c0 8 6 14 13 14l198 0c7 0 13-6 13-14l0-24c0-7-6-13-13-13z"/>
<glyph glyph-name="trash" unicode="&#57392;" d="M201 302l0-165c0-3-1-5-2-6-2-2-4-3-7-3l-18 0c-3 0-5 1-7 3-2 1-2 3-2 6l0 165c0 2 0 5 2 6 2 2 4 3 7 3l18 0c3 0 5-1 7-3 1-1 2-4 2-6z m73 0l0-165c0-3-1-5-2-6-2-2-4-3-7-3l-18 0c-3 0-5 1-7 3-1 1-2 3-2 6l0 165c0 2 1 5 2 6 2 2 4 3 7 3l18 0c3 0 5-1 7-3 1-1 2-4 2-6z m73 0l0-165c0-3 0-5-2-6-2-2-4-3-7-3l-18 0c-3 0-5 1-7 3-1 1-2 3-2 6l0 165c0 2 1 5 2 6 2 2 4 3 7 3l18 0c3 0 5-1 7-3 2-1 2-4 2-6z m37-207l0 271-256 0 0-271c0-4 1-8 2-12 1-3 3-6 4-7 2-2 3-3 3-3l238 0c0 0 1 1 3 3 1 1 3 4 4 7 1 4 2 8 2 12z m-192 307l128 0-14 34c-1 1-3 2-5 3l-90 0c-2-1-4-2-5-3z m265-9l0-18c0-3-1-5-2-7-2-1-4-2-7-2l-27 0 0-271c0-16-5-30-14-41-9-12-20-17-32-17l-238 0c-12 0-23 5-32 16-9 11-14 25-14 41l0 272-27 0c-3 0-5 1-7 2-1 2-2 4-2 7l0 18c0 3 1 5 2 7 2 1 4 2 7 2l88 0 20 48c3 7 8 13 16 18 7 5 15 7 22 7l92 0c7 0 15-2 22-7 8-5 13-11 16-18l20-48 88 0c3 0 5-1 7-2 1-2 2-4 2-7z"/>
<glyph glyph-name="home" unicode="&#57393;" d="M421 229l0-138c0-5-2-9-6-12-3-4-8-6-13-6l-109 0 0 110-74 0 0-110-109 0c-5 0-10 2-13 6-4 3-6 7-6 12l0 138c0 0 0 0 1 0 0 1 0 1 0 1l164 136 164-136c0 0 1-1 1-1z m63 19l-17-21c-2-2-4-3-6-3l-1 0c-3 0-5 1-6 2l-198 165-198-165c-2-2-4-2-7-2-2 0-4 1-6 3l-17 21c-2 2-2 4-2 7 0 3 1 5 3 6l205 171c6 5 14 8 22 8 8 0 16-3 22-8l69-58 0 56c0 2 1 5 3 6 2 2 4 3 7 3l54 0c3 0 5-1 7-3 2-1 3-4 3-6l0-117 62-52c2-1 3-3 3-6 0-3 0-5-2-7z"/>
</font></defs></svg>
